{
    "file": "EMPFlow.json",
    "truths": [
        {
            "association": {
                "file": "fragments/baseline-truth-kinematics.json",
                "particles": "truth_hadrons"
            },
            "output": {
                "n_to_save": 5,
                "sort_order": "pt"
            }
        },
        {
            "association": {
                "file": "fragments/baseline-truth-kinematics.json",
                "particles": "truth_leptons"
            },
            "output": {
                "n_to_save": 5,
                "sort_order": "pt"
            }
        },
        {
            "association": {
                "file": "fragments/baseline-truth-kinematics.json",
                "particles": "truth_fromBC"
            },
            "output": {
                "n_to_save": 5,
                "sort_order": "pt"
            }
        },
        {
            "merge": [
                "ConeExclTausFinal",
                "ConeExclCHadronsFinal",
                "ConeExclBHadronsFinal"
            ],
            "association_name": "ConeExclFinalLabels",
            "output": {
                "n_to_save": 5,
                "sort_order": "pt"
            }
        }
    ]
}
